{"frames": {

"mute_1":
{
	"frame": {"x":0,"y":0,"w":32,"h":23},
	"rotated": false,
	"trimmed": false,
	"spriteSourceSize": {"x":0,"y":0,"w":32,"h":23},
	"sourceSize": {"w":32,"h":23},
	"pivot": {"x":0.5,"y":0.5}
},
"mute_2":
{
	"frame": {"x":32,"y":0,"w":32,"h":23},
	"rotated": false,
	"trimmed": false,
	"spriteSourceSize": {"x":0,"y":0,"w":32,"h":23},
	"sourceSize": {"w":32,"h":23},
	"pivot": {"x":0.5,"y":0.5}
},
"mute_3":
{
	"frame": {"x":0,"y":23,"w":32,"h":23},
	"rotated": false,
	"trimmed": false,
	"spriteSourceSize": {"x":0,"y":0,"w":32,"h":23},
	"sourceSize": {"w":32,"h":23},
	"pivot": {"x":0.5,"y":0.5}
}},
"meta": {
	"app": "http://www.codeandweb.com/texturepacker",
	"version": "1.0",
	"image": "mute.png",
	"format": "RGBA4444",
	"size": {"w":64,"h":64},
	"scale": "1",
	"smartupdate": "$TexturePacker:SmartUpdate:5c974a1542ab178a893cf38852eddda2:ea453e4077563aa84abe9fd6e981269f:6587ea6ff67b6ef7d7792f24ddca638b$"
}
}
